{
  "version": "1.0",
  "defaultProvider": "cdnjs",
  "libraries": [
    {
      "library": "jqueryui@1.12.1",
      "destination": "wwwroot/lib/jqueryui/"
    },
    {
      "library": "moment.js@2.27.0",
      "destination": "wwwroot/lib/moment.js/"
    },
    {
      "library": "jquery-datetimepicker@2.5.20",
      "destination": "wwwroot/lib/jquery-datetimepicker/"
    }
  ]
}